{
  "page": 1,
  "total_results": 474,
  "total_pages": 24,
  "results": [
    {
      "vote_count": 11012,
      "id": 1726,
      "video": false,
      "vote_average": 7.4,
      "title": "Iron Man",
      "popularity": 48.029388,
      "poster_path": "/848chlIWVT41VtAAgyh9bWymAYb.jpg",
      "original_language": "en",
      "original_title": "Iron Man",
      "genre_ids": [
        28,
        878,
        12
      ],
      "backdrop_path": "/ZQixhAZx6fH1VNafFXsqa1B8QI.jpg",
      "adult": false,
      "overview": "After being held captive in an Afghan cave, billionaire engineer Tony Stark creates a unique weaponized suit of armor to fight evil.",
      "release_date": "2008-04-30"
    },
    {
      "vote_count": 10524,
      "id": 68721,
      "video": false,
      "vote_average": 6.8,
      "title": "Iron Man 3",
      "popularity": 43.076616,
      "poster_path": "/1Ilv6ryHUv6rt9zIsbSEJUmmbEi.jpg",
      "original_language": "en",
      "original_title": "Iron Man 3",
      "genre_ids": [
        28,
        12,
        878
      ],
      "backdrop_path": "/n9X2DKItL3V0yq1q1jrk8z5UAki.jpg",
      "adult": false,
      "overview": "When Tony Stark's world is torn apart by a formidable terrorist called the Mandarin, he starts an odyssey of rebuilding and retribution.",
      "release_date": "2013-04-18"
    },
    {
      "vote_count": 8551,
      "id": 10138,
      "video": false,
      "vote_average": 6.7,
      "title": "Iron Man 2",
      "popularity": 41.702905,
      "poster_path": "/ArqpkNYGfcTIA6umWt6xihfIZZv.jpg",
      "original_language": "en",
      "original_title": "Iron Man 2",
      "genre_ids": [
        12,
        28,
        878
      ],
      "backdrop_path": "/jxdSxqAFrdioKgXwgTs5Qfbazjq.jpg",
      "adult": false,
      "overview": "With the world now aware of his dual life as the armored superhero Iron Man, billionaire inventor Tony Stark faces pressure from the government, the press and the public to share his technology with the military. Unwilling to let go of his invention, Stark, with Pepper Potts and James 'Rhodey' Rhodes at his side, must forge new alliances – and confront powerful enemies.",
      "release_date": "2010-04-28"
    },
    {
      "vote_count": 1875,
      "id": 10386,
      "video": false,
      "vote_average": 7.7,
      "title": "The Iron Giant",
      "popularity": 30.769018,
      "poster_path": "/rdN6IjV4xlDDhrT8ewkkJfPvp2e.jpg",
      "original_language": "en",
      "original_title": "The Iron Giant",
      "genre_ids": [
        12,
        16,
        10751,
        14,
        878
      ],
      "backdrop_path": "/11XLucJQvdgtchSfO0ZTbo966pp.jpg",
      "adult": false,
      "overview": "In the small town of Rockwell, Maine in October 1957, a giant metal machine befriends a nine-year-old boy and ultimately finds its humanity by unselfishly saving people from their own fears and prejudices.",
      "release_date": "1999-08-06"
    },
    {
      "vote_count": 670,
      "id": 10679,
      "video": false,
      "vote_average": 5.6,
      "title": "Iron Sky",
      "popularity": 11.317451,
      "poster_path": "/4qyVtcCFqrlLMgHtlyxP57PI3ls.jpg",
      "original_language": "en",
      "original_title": "Iron Sky",
      "genre_ids": [
        28,
        35,
        878
      ],
      "backdrop_path": "/mIOWtdsUg9VZXVMwVdO30TejAxn.jpg",
      "adult": false,
      "overview": "In the last moments of World War II, a secret Nazi space program evaded destruction by fleeing to the Dark Side of the Moon. During 70 years of utter secrecy, the Nazis construct a gigantic space fortress with a massive armada of flying saucers.",
      "release_date": "2012-03-10"
    },
    {
      "vote_count": 59,
      "id": 24767,
      "video": false,
      "vote_average": 6.1,
      "title": "Iron Will",
      "popularity": 10.757219,
      "poster_path": "/oaMVUuWgUGG2Oy9zkkL6SNjrfOo.jpg",
      "original_language": "en",
      "original_title": "Iron Will",
      "genre_ids": [
        12,
        18,
        10751
      ],
      "backdrop_path": "/yDcBvaOcLlIGJY9VOwGJMp7BzpU.jpg",
      "adult": false,
      "overview": "When Will Stoneman's father dies, he is left alone to take care of his mother and their land. Needing money to maintain it, he decides to join a cross country dogsled race. This race will require days of racing for long hours, through harsh weather and terrain. This young man will need a lot of courage and a strong will to complete this race.",
      "release_date": "1994-01-14"
    },
    {
      "vote_count": 171,
      "id": 5205,
      "video": false,
      "vote_average": 7,
      "title": "Pumping Iron",
      "popularity": 7.444278,
      "poster_path": "/sFr91QWRZb2Xe8zpGJw1BW7dema.jpg",
      "original_language": "en",
      "original_title": "Pumping Iron",
      "genre_ids": [
        99
      ],
      "backdrop_path": "/sl5sjCDyBogAUqOW29MBYeTgNXT.jpg",
      "adult": false,
      "overview": "Pumping Iron is a 1977 documentary film about the run-up to the 1975 Mr. Olympia bodybuilding competition. The film focuses on Arnold Schwarzenegger and his competitors, Lou Ferrigno and Franco Columbu. The documentary was co-directed by Robert Fiore and George Butler. It was based on the book of the same name by Charles Gaines and George Butler (Simon and Schuster, 1974).",
      "release_date": "1977-01-18"
    },
    {
      "vote_count": 77,
      "id": 11037,
      "video": false,
      "vote_average": 4.8,
      "title": "Iron Eagle",
      "popularity": 7.2475,
      "poster_path": "/Wav0BfhK8dXQGhGbkhnL7MlLl3.jpg",
      "original_language": "en",
      "original_title": "Iron Eagle",
      "genre_ids": [
        28,
        53,
        10752
      ],
      "backdrop_path": "/1LKqxl6POOFsnPLnXkAkoyoOttq.jpg",
      "adult": false,
      "overview": "When Doug's father, an Air Force Pilot, is shot down by MiGs belonging to a radical Middle Eastern state, no one seems able to get him out. Doug finds Chappy, an Air Force Colonel who is intrigued by the idea of sending in two fighters piloted by himself and Doug to rescue Doug's father after bombing the MiG base.",
      "release_date": "1986-01-17"
    },
    {
      "vote_count": 52,
      "id": 207021,
      "video": false,
      "vote_average": 6.9,
      "title": "Generation Iron",
      "popularity": 5.699894,
      "poster_path": "/p6LSfvclXCmgTvOaIclzqPlXbZh.jpg",
      "original_language": "en",
      "original_title": "Generation Iron",
      "genre_ids": [
        99
      ],
      "backdrop_path": "/h0aIV7svNpwk3ZOiiHQBmGozm9j.jpg",
      "adult": false,
      "overview": "Generation Iron - examines the professional sport of bodybuilding today and gives the audience front row access to the lives of the top 7 bodybuilders in the sport as they train to compete in the world's most premiere bodybuilding stage - Mr. Olympia.",
      "release_date": "2013-09-20"
    },
    {
      "vote_count": 140,
      "id": 339259,
      "video": false,
      "vote_average": 6.5,
      "title": "The Man with the Iron Heart",
      "popularity": 23.805108,
      "poster_path": "/ZVQfCY2DgCjrm8w2saXvT8Ao3B.jpg",
      "original_language": "en",
      "original_title": "The Man with the Iron Heart",
      "genre_ids": [
        10752,
        28,
        36,
        53
      ],
      "backdrop_path": "/3yd3Ae2X9KkKBHFG4WZexFVvkd8.jpg",
      "adult": false,
      "overview": "With the Third Reich is at his peak in 1942, the Czech resistance in London plans the most ambitious military operation of WWII –  Anthropoid. Two young recruits are sent to Prague to assassinate the most ruthless Nazi leader – Reinhardt Heydrich – head of the SS, the Gestapo and the architect of the Final Solution.",
      "release_date": "2017-05-25"
    },
    {
      "vote_count": 21,
      "id": 388191,
      "video": false,
      "vote_average": 5.9,
      "title": "Mythica: The Iron Crown",
      "popularity": 8.274445,
      "poster_path": "/otSfU9MrjYr1bJRhoAO61Pq1csH.jpg",
      "original_language": "en",
      "original_title": "Mythica: The Iron Crown",
      "genre_ids": [
        28,
        12,
        14
      ],
      "backdrop_path": "/nL5ksz7dZxIwUBs03c1f6AOjHfX.jpg",
      "adult": false,
      "overview": "When a team of unlikely heroes hijacks a steam-powered battle wagon, a daring young wizard (Marek) steals the final piece of the all-powerful Darkspore and embarks on a desperate quest to deliver the cursed artifact to the gods for safe keeping; but when they are caught in a death race between a ruthless team of elite mercenaries and a trinity of demons, Marek must learn to believe in herself before her friends are killed and the Darkspore is lost, to stop the evil necromancer (Szorlok) from uniting the Darkspore and flooding the living world with his legions of undead.",
      "release_date": "2016-05-14"
    },
    {
      "vote_count": 1,
      "id": 68799,
      "video": false,
      "vote_average": 7,
      "title": "Iron Sister",
      "popularity": 3.040539,
      "poster_path": "/kXNvvjjdbYOtxVxhDrc5nVZXYH7.jpg",
      "original_language": "zh",
      "original_title": "慾女",
      "genre_ids": [
        10752,
        18
      ],
      "backdrop_path": null,
      "adult": false,
      "overview": "Manchuria 1941: Caught sleeping with his Japanese major's mistress, Manchurian collaborator Tung Fei (Jackson Liu Hsiu-hsien) fatally shoots the man and flees for his life. Overcome by fatigue after hours of travel on horseback, Tung eventually awakens to find himself under the care of hunter Suen (Dick Wei) and his daughter, Ironic (Hsu).",
      "release_date": "1999-01-06"
    },
    {
      "vote_count": 14,
      "id": 476673,
      "video": false,
      "vote_average": 8.9,
      "title": "Snow Steam Iron",
      "popularity": 4.345999,
      "poster_path": "/prOqij7QnApiEueGAWUeaRZsihe.jpg",
      "original_language": "en",
      "original_title": "Snow Steam Iron",
      "genre_ids": [
        53,
        18,
        28
      ],
      "backdrop_path": "/bCvQY9SVf7EBi1XdynR0yDWvsBp.jpg",
      "adult": false,
      "overview": "“Snow gently falls on the blood-stained streets of a seedy out-of-time New York City. Steam envelopes the nightmare unfolding within its narrow alleys. Iron is the will of the one who would dare to resist… fight… survive.”",
      "release_date": "2017-09-19"
    },
    {
      "vote_count": 114,
      "id": 10839,
      "video": false,
      "vote_average": 6.6,
      "title": "Cross of Iron",
      "popularity": 7.321719,
      "poster_path": "/9KGjHLdyLSBHxRoAk0uUPtE7VtU.jpg",
      "original_language": "en",
      "original_title": "Cross of Iron",
      "genre_ids": [
        18,
        28,
        36,
        10752
      ],
      "backdrop_path": "/ay20aVc5m1WHkwJUuy7kfDXVFWO.jpg",
      "adult": false,
      "overview": "It is 1943, and the German army, ravaged and demoralised, are hastily retreating from the Russian front. In the midst of all this madness, conflict brews between the aristocratic yet ultimately pusillanimous Captain Stransky and the courageous Corporal Steiner. Stransky is the only man who believes that the Third Reich are still vastly superior to the Russian army; however within his pompous persona lies a quivering coward who longs for the Iron Cross so that he can return to Berlin a hero. Steiner, on the other hand is cynical, defiantly non-conformist and more concerned with the safety of his own men rather than the horde of military decorations offered to him by his superiors. Steiner's lack of respect results in a growing animosity between the two...",
      "release_date": "1977-01-29"
    },
    {
      "vote_count": 686,
      "id": 71688,
      "video": false,
      "vote_average": 6.3,
      "title": "The Iron Lady",
      "popularity": 7.22959,
      "poster_path": "/e67tal4u66eFz8yGnJGTO5FYRxY.jpg",
      "original_language": "en",
      "original_title": "The Iron Lady",
      "genre_ids": [
        36,
        18
      ],
      "backdrop_path": "/dfM5XwQcw36HAnKhowEh5776MJl.jpg",
      "adult": false,
      "overview": "A look at the life of Margaret Thatcher, the former Prime Minister of the United Kingdom, with a focus on the price she paid for power.",
      "release_date": "2011-12-30"
    },
    {
      "vote_count": 55,
      "id": 13647,
      "video": false,
      "vote_average": 5.6,
      "title": "The Invincible Iron Man",
      "popularity": 6.05722,
      "poster_path": "/7jDmWZW0C9nXEgsKNGs1nZT1EPv.jpg",
      "original_language": "en",
      "original_title": "The Invincible Iron Man",
      "genre_ids": [
        28,
        12,
        16,
        14,
        878
      ],
      "backdrop_path": "/oUi2pvNbHCUiEFSqawp5dJdQNMK.jpg",
      "adult": false,
      "overview": "When a cocky industrialist's efforts to raise an ancient Chinese temple leads him to be seriously wounded and captured by enemy forces, he must use his ideas for a revolutionary power armor in order to fight back as a superhero.",
      "release_date": "2007-01-23"
    },
    {
      "vote_count": 12,
      "id": 447818,
      "video": false,
      "vote_average": 7.6,
      "title": "Generation Iron 2",
      "popularity": 6.035145,
      "poster_path": "/cXZGSRFN2WyLa6a4KhGIoTrjvdL.jpg",
      "original_language": "en",
      "original_title": "Generation Iron 2",
      "genre_ids": [
        99
      ],
      "backdrop_path": "/aheObqWQfRTyJnB8APsZmjdu9xt.jpg",
      "adult": false,
      "overview": "From the director of Generation Iron, comes the anticipated sequel that will depict 5 of the top bodybuilding and fitness mega-stars on a quest of achieving the ultimate physique and taking it to the next extreme level. In the world of social media and internet, the rules have changed as to what makes an iconic bodybuilding mass-monster. Starring Kai Greene, Calum Von Moger, Rich Piana, among others, this film will explore an all new generation of bodybuilders and how this new world, and new people, carve their own path to physique perfection.",
      "release_date": "2017-05-12"
    },
    {
      "vote_count": 1337,
      "id": 9313,
      "video": false,
      "vote_average": 6.3,
      "title": "The Man in the Iron Mask",
      "popularity": 12.603097,
      "poster_path": "/mNbLk9qdBMnzBFWBrjy3Nuw9Ovi.jpg",
      "original_language": "en",
      "original_title": "The Man in the Iron Mask",
      "genre_ids": [
        28,
        12,
        18,
        36
      ],
      "backdrop_path": "/c8znzyczeHuSe2xP0HyQ0sLUsDD.jpg",
      "adult": false,
      "overview": "Years have passed since the Three Musketeers, Aramis, Athos and Porthos, have fought together with their friend, D'Artagnan. But with the tyrannical King Louis using his power to wreak havoc in the kingdom while his twin brother, Philippe, remains imprisoned, the Musketeers reunite to abduct Louis and replace him with Philippe.",
      "release_date": "1998-03-12"
    },
    {
      "vote_count": 9,
      "id": 44852,
      "video": false,
      "vote_average": 6.4,
      "title": "Iron Monkey 2",
      "popularity": 3.59769,
      "poster_path": "/dph94prqHAhPZzRrhEJ0M3cOSTi.jpg",
      "original_language": "cn",
      "original_title": "Gaai tau saat sau",
      "genre_ids": [
        28
      ],
      "backdrop_path": "/abyhdEAtyIZ5L5UvODMAhARTcAD.jpg",
      "adult": false,
      "overview": "Iron Monkey (Donnie Yen) teams up with his blind friend Jin (Wu Ma) to bring underworld agent the Tiger to justice. When Jin's son (Lau Kan Wan) arrives he soon becomes caught up in the conflict, leading to Jin's death. Jin's son now joins the Iron Monkey to avenge his father's memory, as they launch an attack on the Tiger's lair.",
      "release_date": "1996-04-24"
    },
    {
      "vote_count": 99,
      "id": 12780,
      "video": false,
      "vote_average": 7.6,
      "title": "Iron Monkey",
      "popularity": 9.154205,
      "poster_path": "/5a7m06pxlDMbuVodP8gVSho5I91.jpg",
      "original_language": "cn",
      "original_title": "少年黃飛鴻之鐵馬骝",
      "genre_ids": [
        28,
        80,
        18
      ],
      "backdrop_path": "/ec4vE05XBsLAm1ly9QvcvVvoeo5.jpg",
      "adult": false,
      "overview": "Iron Monkey is a Hong Kong variation of Robin Hood. Corrupt officials of a Chinese village are robbed by a masked bandit known as \"Iron Monkey\", named after a benevolent deity. When all else fails, the Governor forces a traveling physician into finding the bandit. The arrival of an evil Shaolin monk, brings the physician and Iron Monkey together to battle the corrupt government.",
      "release_date": "1993-09-03"
    }
  ]
}