{
  "results": [
    {
      "vote_count": 3902,
      "id": 354912,
      "video": false,
      "vote_average": 7.8,
      "title": "Coco",
      "popularity": 265.013236,
      "poster_path": "/eKi8dIrr8voobbaGzDpe8w0PVbC.jpg",
      "original_language": "en",
      "original_title": "Coco",
      "genre_ids": [
        12,
        35,
        10751,
        16
      ],
      "backdrop_path": "/askg3SMvhqEl4OL52YuvdtY40Yb.jpg",
      "adult": false,
      "overview": "Despite his family’s baffling generations-old ban on music, Miguel dreams of becoming an accomplished musician like his idol, Ernesto de la Cruz. Desperate to prove his talent, Miguel finds himself in the stunning and colorful Land of the Dead following a mysterious chain of events. Along the way, he meets charming trickster Hector, and together, they set off on an extraordinary journey to unlock the real story behind Miguel's family history.",
      "release_date": "2017-10-27"
    },
    {
      "vote_count": 474,
      "id": 447332,
      "video": false,
      "vote_average": 7.5,
      "title": "A Quiet Place",
      "popularity": 193.662421,
      "poster_path": "/nAU74GmpUk7t5iklEp3bufwDq4n.jpg",
      "original_language": "en",
      "original_title": "A Quiet Place",
      "genre_ids": [
        18,
        27,
        53,
        878
      ],
      "backdrop_path": "/nIrDm42dy5PaXtUAzUfPmxM4mQm.jpg",
      "adult": false,
      "overview": "A family is forced to live in silence while hiding from creatures that hunt by sound.",
      "release_date": "2018-04-05"
    },
    {
      "vote_count": 1344,
      "id": 333339,
      "video": false,
      "vote_average": 7.9,
      "title": "Ready Player One",
      "popularity": 184.684943,
      "poster_path": "/pU1ULUq8D3iRxl1fdX2lZIzdHuI.jpg",
      "original_language": "en",
      "original_title": "Ready Player One",
      "genre_ids": [
        12,
        878,
        28
      ],
      "backdrop_path": "/q7fXcrDPJcf6t3rzutaNwTzuKP1.jpg",
      "adult": false,
      "overview": "When the creator of a popular video game system dies, a virtual contest is created to compete for his fortune.",
      "release_date": "2018-03-28"
    },
    {
      "vote_count": 805,
      "id": 353616,
      "video": false,
      "vote_average": 6.4,
      "title": "Pitch Perfect 3",
      "popularity": 153.047331,
      "poster_path": "/fchHLsLjFvzAFSQykiMwdF1051.jpg",
      "original_language": "en",
      "original_title": "Pitch Perfect 3",
      "genre_ids": [
        35,
        10402
      ],
      "backdrop_path": "/f5a9YRvJ7uSM0JAtEI59sqKRnVg.jpg",
      "adult": false,
      "overview": "After the highs of winning the world championships, the Bellas find themselves split apart and discovering there aren't job prospects for making music with your mouth. But when they get the chance to reunite for an overseas USO tour, this group of awesome nerds will come together to make some music, and some questionable decisions, one last time.",
      "release_date": "2017-12-21"
    },
    {
      "vote_count": 993,
      "id": 338970,
      "video": false,
      "vote_average": 6.1,
      "title": "Tomb Raider",
      "popularity": 118.594303,
      "poster_path": "/ePyN2nX9t8SOl70eRW47Q29zUFO.jpg",
      "original_language": "en",
      "original_title": "Tomb Raider",
      "genre_ids": [
        28,
        12,
        14
      ],
      "backdrop_path": "/yVlaVnGRwJMxB3txxwA24XurSNp.jpg",
      "adult": false,
      "overview": "Lara Croft, the fiercely independent daughter of a missing adventurer, must push herself beyond her limits when she finds herself on the island where her father disappeared.",
      "release_date": "2018-03-08"
    },
    {
      "vote_count": 3464,
      "id": 399055,
      "video": false,
      "vote_average": 7.3,
      "title": "The Shape of Water",
      "popularity": 107.116625,
      "poster_path": "/k4FwHlMhuRR5BISY2Gm2QZHlH5Q.jpg",
      "original_language": "en",
      "original_title": "The Shape of Water",
      "genre_ids": [
        18,
        14,
        10749
      ],
      "backdrop_path": "/rgyhSn3mINvkuy9iswZK0VLqQO3.jpg",
      "adult": false,
      "overview": "An other-worldly story, set against the backdrop of Cold War era America circa 1962, where a mute janitor working at a lab falls in love with an amphibious man being held captive there and devises a plan to help him escape.",
      "release_date": "2017-12-01"
    },
    {
      "vote_count": 3568,
      "id": 353486,
      "video": false,
      "vote_average": 6.6,
      "title": "Jumanji: Welcome to the Jungle",
      "popularity": 99.147428,
      "poster_path": "/bXrZ5iHBEjH7WMidbUDQ0U2xbmr.jpg",
      "original_language": "en",
      "original_title": "Jumanji: Welcome to the Jungle",
      "genre_ids": [
        28,
        12,
        35,
        10751
      ],
      "backdrop_path": "/cpz070zEKbPGXzCWuQsNt42PqXY.jpg",
      "adult": false,
      "overview": "The tables are turned as four teenagers are sucked into Jumanji's world - pitted against rhinos, black mambas and an endless variety of jungle traps and puzzles. To survive, they'll play as characters from the game.",
      "release_date": "2017-12-09"
    },
    {
      "vote_count": 93,
      "id": 427641,
      "video": false,
      "vote_average": 6.6,
      "title": "Rampage",
      "popularity": 94.111001,
      "poster_path": "/30oXQKwibh0uANGMs0Sytw3uN22.jpg",
      "original_language": "en",
      "original_title": "Rampage",
      "genre_ids": [
        28,
        12,
        878
      ],
      "backdrop_path": "/wrqUiMXttHE4UBFMhLHlN601MZh.jpg",
      "adult": false,
      "overview": "Primatologist Davis Okoye shares an unshakable bond with George, the extraordinarily intelligent, silverback gorilla who has been in his care since birth.  But a rogue genetic experiment gone awry mutates this gentle ape into a raging creature of enormous size.  To make matters worse, it’s soon discovered there are other similarly altered animals.  As these newly created alpha predators tear across North America, destroying everything in their path, Okoye teams with a discredited genetic engineer to secure an antidote, fighting his way through an ever-changing battlefield, not only to halt a global catastrophe but to save the fearsome creature that was once his friend.",
      "release_date": "2018-04-12"
    },
    {
      "vote_count": 833,
      "id": 399035,
      "video": false,
      "vote_average": 5.8,
      "title": "The Commuter",
      "popularity": 75.484959,
      "poster_path": "/rDeGK6FIUfVcXmuBdEORPAGPMNg.jpg",
      "original_language": "en",
      "original_title": "The Commuter",
      "genre_ids": [
        28,
        80,
        18
      ],
      "backdrop_path": "/clmYuR1t4TtKcakIOvYIPrjyxDc.jpg",
      "adult": false,
      "overview": "A businessman on his daily commute home gets unwittingly caught up in a criminal conspiracy that threatens not only his life but the lives of those around him.",
      "release_date": "2018-01-11"
    },
    {
      "vote_count": 1144,
      "id": 446354,
      "video": false,
      "vote_average": 7,
      "title": "The Post",
      "popularity": 71.86408,
      "poster_path": "/h4XG3g6uMMPIBPjAoQhC2QIMdkl.jpg",
      "original_language": "en",
      "original_title": "The Post",
      "genre_ids": [
        18,
        36
      ],
      "backdrop_path": "/8sb4aBST28vN3rBz704XJczS0Ld.jpg",
      "adult": false,
      "overview": "A cover-up that spanned four U.S. Presidents pushed the country's first female newspaper publisher and a hard-driving editor to join an unprecedented battle between journalist and government. Inspired by true events.",
      "release_date": "2017-12-22"
    },
    {
      "vote_count": 1483,
      "id": 300668,
      "video": false,
      "vote_average": 6.3,
      "title": "Annihilation",
      "popularity": 61.88018,
      "poster_path": "/d3qcpfNwbAMCNqWDHzPQsUYiUgS.jpg",
      "original_language": "en",
      "original_title": "Annihilation",
      "genre_ids": [
        9648,
        878,
        18
      ],
      "backdrop_path": "/5zfVNTrkhMu673zma6qhFzG01ig.jpg",
      "adult": false,
      "overview": "A biologist signs up for a dangerous, secret expedition into a mysterious zone where the laws of nature don't apply.",
      "release_date": "2018-02-22"
    },
    {
      "vote_count": 2549,
      "id": 359940,
      "video": false,
      "vote_average": 8.2,
      "title": "Three Billboards Outside Ebbing, Missouri",
      "popularity": 55.961229,
      "poster_path": "/vgvw6w1CtcFkuXXn004S5wQsHRl.jpg",
      "original_language": "en",
      "original_title": "Three Billboards Outside Ebbing, Missouri",
      "genre_ids": [
        80,
        18
      ],
      "backdrop_path": "/9oRdMkQ6ysUuF7Ufb1oMH5NMDY2.jpg",
      "adult": false,
      "overview": "After seven months have passed without a culprit in her daughter's murder case, Mildred Hayes makes a bold move, painting three signs leading into her town with a controversial message directed at Bill Willoughby, the town's revered chief of police. When his second-in-command Officer Jason Dixon, an immature mother's boy with a penchant for violence, gets involved, the battle between Mildred and Ebbing's law enforcement is only exacerbated.",
      "release_date": "2017-11-10"
    },
    {
      "vote_count": 155,
      "id": 398181,
      "video": false,
      "vote_average": 6.7,
      "title": "You Were Never Really Here",
      "popularity": 51.46021,
      "poster_path": "/urIWmqLrIlFAHNJ7dOKHsybXbOT.jpg",
      "original_language": "en",
      "original_title": "You Were Never Really Here",
      "genre_ids": [
        18,
        9648,
        53
      ],
      "backdrop_path": "/7D0V9JtFc5l0YbVguPWi9wTRJ7G.jpg",
      "adult": false,
      "overview": "A traumatised veteran, unafraid of violence, tracks down missing girls for a living. When a job spins out of control, Joe's nightmares overtake him as a conspiracy is uncovered leading to what may be his death trip or his awakening.",
      "release_date": "2017-11-08"
    },
    {
      "vote_count": 613,
      "id": 396371,
      "video": false,
      "vote_average": 6.9,
      "title": "Molly's Game",
      "popularity": 50.886731,
      "poster_path": "/83k7FXpyV3xyOwyq1W7hBO6GVJA.jpg",
      "original_language": "en",
      "original_title": "Molly's Game",
      "genre_ids": [
        80,
        18
      ],
      "backdrop_path": "/yvbXGWjg30sj7rohEZvSe90jSJC.jpg",
      "adult": false,
      "overview": "Molly Bloom, a young skier and former Olympic hopeful becomes a successful entrepreneur (and a target of an FBI investigation) when she establishes a high-stakes, international poker game.",
      "release_date": "2017-12-21"
    },
    {
      "vote_count": 407,
      "id": 268896,
      "video": false,
      "vote_average": 6,
      "title": "Pacific Rim: Uprising",
      "popularity": 48.07842,
      "poster_path": "/v5HlmJK9bdeHxN2QhaFP1ivjX3U.jpg",
      "original_language": "en",
      "original_title": "Pacific Rim: Uprising",
      "genre_ids": [
        28,
        14,
        878,
        12
      ],
      "backdrop_path": "/mo5EJsExrQCroqPDwUwp6jeq0xS.jpg",
      "adult": false,
      "overview": "It has been ten years since The Battle of the Breach and the oceans are still, but restless. Vindicated by the victory at the Breach, the Jaeger program has evolved into the most powerful global defense force in human history. The PPDC now calls upon the best and brightest to rise up and become the next generation of heroes when the Kaiju threat returns.",
      "release_date": "2018-03-21"
    },
    {
      "vote_count": 238,
      "id": 449443,
      "video": false,
      "vote_average": 6.2,
      "title": "Den of Thieves",
      "popularity": 46.809022,
      "poster_path": "/AfybH6GbGFw1F9bcETe2yu25mIE.jpg",
      "original_language": "en",
      "original_title": "Den of Thieves",
      "genre_ids": [
        28,
        53,
        80
      ],
      "backdrop_path": "/s3FDBLH4qc1IcjexB05Qvbn3wxO.jpg",
      "adult": false,
      "overview": "While planning a bank heist, a thief gets trapped between two sets of criminals.",
      "release_date": "2018-01-18"
    },
    {
      "vote_count": 719,
      "id": 401981,
      "video": false,
      "vote_average": 6.4,
      "title": "Red Sparrow",
      "popularity": 46.328945,
      "poster_path": "/fyufzd2S1lLxMxkTHTnmr6VJfe5.jpg",
      "original_language": "en",
      "original_title": "Red Sparrow",
      "genre_ids": [
        9648,
        53
      ],
      "backdrop_path": "/uBw0QSBWamSWXWl5ttwhxq4h09s.jpg",
      "adult": false,
      "overview": "Prima ballerina Dominika Egorova faces a bleak and uncertain future after she suffers an injury that ends her career. She soon turns to Sparrow School, a secret intelligence service that trains exceptional young people to use their minds and bodies as weapons. Egorova emerges as the most dangerous Sparrow after completing the sadistic training process. As she comes to terms with her new abilities, Dominika meets a CIA agent who tries to convince her that he is the only person she can trust.",
      "release_date": "2018-03-01"
    },
    {
      "vote_count": 311,
      "id": 429351,
      "video": false,
      "vote_average": 5,
      "title": "12 Strong",
      "popularity": 41.869497,
      "poster_path": "/j18021qCeRi3yUBtqd2UFj1c0RQ.jpg",
      "original_language": "en",
      "original_title": "12 Strong",
      "genre_ids": [
        10752,
        18,
        36
      ],
      "backdrop_path": "/wacEk5YSNE41QeKseilyytksXmv.jpg",
      "adult": false,
      "overview": "A team of CIA agents and special forces head into Afghanistan in the aftermath of the September 11th attacks in an attempt to dismantle the Taliban.",
      "release_date": "2018-01-18"
    },
    {
      "vote_count": 295,
      "id": 384680,
      "video": false,
      "vote_average": 6.2,
      "title": "Hostiles",
      "popularity": 39.02182,
      "poster_path": "/rqoezyB51GfhiloOB5ZErg5HXas.jpg",
      "original_language": "en",
      "original_title": "Hostiles",
      "genre_ids": [
        12,
        18,
        37
      ],
      "backdrop_path": "/ozdXqMwijV192aSrojjFQMGeWSh.jpg",
      "adult": false,
      "overview": "A legendary Native American-hating Army captain nearing retirement in 1892 is given one last assignment: to escort a Cheyenne chief and his family through dangerous territory back to his Montana reservation.",
      "release_date": "2017-12-22"
    },
    {
      "vote_count": 12,
      "id": 505177,
      "video": false,
      "vote_average": 3.9,
      "title": "10x10",
      "popularity": 36.653011,
      "poster_path": "/egMETBYual2JtfFGigXTA0tGkME.jpg",
      "original_language": "en",
      "original_title": "10x10",
      "genre_ids": [
        53
      ],
      "backdrop_path": "/bsTwh5cIijJO8CQ01kcWhqvW1H8.jpg",
      "adult": false,
      "overview": "Lewis is an outwardly ordinary guy, but in reality he is hiding an obsession - revenge - against Cathy. Lewis kidnaps Cathy in broad daylight and takes her to his home, where he locks her in a soundproof cell and attempt to extract a dark secret from her past.",
      "release_date": "2018-04-13"
    }
  ],
  "page": 1,
  "total_results": 942,
  "dates": {
    "maximum": "2018-04-21",
    "minimum": "2018-03-03"
  },
  "total_pages": 48
}